^C:\USERS\KAZUMA\SOURCE\REPOS\PARTII_Q4\DEBUG\PARTII_Q4.OBJ
C:\USERS\KAZUMA\SOURCE\REPOS\PARTII_Q4\DEBUG\PARTII_Q4.ILK
C:\USERS\KAZUMA\SOURCE\REPOS\PARTII_Q4\DEBUG\PARTII_Q4.EXE
C:\USERS\KAZUMA\SOURCE\REPOS\PARTII_Q4\DEBUG\PARTII_Q4.PDB
