^C:\USERS\KAZUMA\SOURCE\REPOS\PARTII_Q5\PARTII_Q5.CPP
C:\USERS\KAZUMA\SOURCE\REPOS\PARTII_Q5\DEBUG\VC142.PDB
C:\USERS\KAZUMA\SOURCE\REPOS\PARTII_Q5\DEBUG\VC142.IDB
C:\USERS\KAZUMA\SOURCE\REPOS\PARTII_Q5\DEBUG\PARTII_Q5.OBJ
