^C:\USERS\KAZUMA\SOURCE\REPOS\PARTII_Q3\PARTII_Q3.CPP
C:\USERS\KAZUMA\SOURCE\REPOS\PARTII_Q3\DEBUG\VC142.PDB
C:\USERS\KAZUMA\SOURCE\REPOS\PARTII_Q3\DEBUG\VC142.IDB
C:\USERS\KAZUMA\SOURCE\REPOS\PARTII_Q3\DEBUG\PARTII_Q3.OBJ
