^C:\USERS\KAZUMA\SOURCE\REPOS\HW4_PARTII_Q2\DEBUG\HW4_PARTII_Q2.OBJ
C:\USERS\KAZUMA\SOURCE\REPOS\HW4_PARTII_Q2\DEBUG\HW4_PARTII_Q2.EXE
C:\USERS\KAZUMA\SOURCE\REPOS\HW4_PARTII_Q2\DEBUG\HW4_PARTII_Q2.ILK
C:\USERS\KAZUMA\SOURCE\REPOS\HW4_PARTII_Q2\DEBUG\HW4_PARTII_Q2.PDB
