^C:\USERS\KAZUMA\DESKTOP\CS271 EXTRA CREDIT\MASM_TEMP\DEBUG\MAIN.OBJ
C:\USERS\KAZUMA\DESKTOP\CS271 EXTRA CREDIT\MASM_TEMP\DEBUG\MASM_TEMP.EXE
C:\USERS\KAZUMA\DESKTOP\CS271 EXTRA CREDIT\MASM_TEMP\DEBUG\MASM_TEMP.ILK
C:\USERS\KAZUMA\DESKTOP\CS271 EXTRA CREDIT\MASM_TEMP\DEBUG\MASM_TEMP.PDB
